Sezgi Ayhan Progress Journal - 3 In Class 2
…
tibble(gold_winner)

# A tibble: 60 × 15
      ID Name     Sex     Age Height Weight Team  NOC   Games  Year Season City 
   <int> <chr>    <chr> <int>  <int>  <dbl> <chr> <chr> <chr> <int> <chr>  <chr>
 1  5173 "Michel… M        20    190     77 Unit… USA   1976…  1976 Summer Mont…
 2  8384 "Olga F… F        21    168     67 Sovi… URS   1976…  1976 Summer Mont…
 3  8384 "Olga F… F        25    168     67 Sovi… URS   1980…  1980 Summer Mosk…
 4  9779 "Aleksa… M        20    200    100 Sovi… URS   1972…  1972 Summer Muni…
 5  9783 "Sergey… M        28    190     82 Sovi… URS   1972…  1972 Summer Muni…
 6 10964 "Vida B… F        23    190     91 Sovi… URS   1980…  1980 Summer Mosk…
 7 13017 "Aleksa… M        25    205    105 Sovi… URS   1972…  1972 Summer Muni…
 8 16109 "Willia… M        21    190     92 Unit… USA   1976…  1976 Summer Mont…
 9 18483 "Kennet… M        20    200    102 Unit… USA   1976…  1976 Summer Mont…
10 23251 "Kreimi… M        31    209     94 Yugo… YUG   1980…  1980 Summer Mosk…
# ℹ 50 more rows
# ℹ 3 more variables: Sport <chr>, Event <chr>, Medal <chr>
…
