Sezgi Ayhan Progress Journal - 2 In Class 1
…
#Show mean_ages by year with number of athletes data
raw_data %>% 
  group_by(Year) %>%
  summarize(mean_age = mean(Age, na.rm = TRUE), sd_age = sd(Age, na.rm =TRUE), ID = n()) %>%
  arrange(mean_age)

# A tibble: 35 × 4
    Year mean_age sd_age    ID
   <int>    <dbl>  <dbl> <int>
 1  1896     23.6   4.69   380
 2  1980     23.7   5.08  8937
 3  1976     23.8   5.55 10502
 4  1984     23.9   5.25 11588
 5  1988     24.1   5.20 14676
 6  1968     24.2   5.76 10479
 7  1972     24.3   5.81 11959
 8  1992     24.3   5.17 16413
 9  1994     24.4   4.20  3160
10  1996     24.9   5.50 13780
# ℹ 25 more rows
…
